{
  "version": "1.0.0-*",
  "description": "Model Class Library",
  "authors": [ "Infojini Consulting" ],
  "tags": [ "" ],
  "projectUrl": "",
  "licenseUrl": "",
  "frameworks": {
    "dnx451": {
      "frameworkAssemblies": {
        "System.ComponentModel.DataAnnotations": "4.0.0.0"
      },
      "dependencies": {
        "Microsoft.AspNet.Http.Abstractions": "1.0.0-rc1-final"
      }
    },
    "dnxcore50": {
      "dependencies": {
        "Microsoft.CSharp": "4.0.1-beta-23409",
        "System.Collections": "4.0.11-beta-23409",
        "System.Linq": "4.0.1-beta-23409",
        "System.Runtime": "4.0.21-beta-23409",
        "System.Threading": "4.0.11-beta-23409",
        "System.ComponentModel.Annotations": "4.0.11-beta-23409"
      }
    }
  },
  "dependencies": {
    "Newtonsoft.Json": "7.0.1"
  }
}
