{
  "version": "1.0.0-*",
  "description": "EFModelRepository Class Library",
  "authors": [ "Infojini Consulting" ],
  "tags": [ "" ],
  "projectUrl": "",
  "licenseUrl": "",
  "frameworks": {
    "dnx451": {
      "frameworkAssemblies": {
        "System.ComponentModel.DataAnnotations": "4.0.0.0"
      },
      "dependencies": {
      }
    }
  },
  "dependencies": {
    "Autofac": "4.0.0-rc1-177",
    "EntityFramework.Core": "7.0.0-rc1-final",
    "EntityFramework.MicrosoftSqlServer": "7.0.0-rc1-final",
    "Microsoft.AspNet.Identity.EntityFramework": "3.0.0-rc1-final",
    "Model": "1.0.0-*",
    "ModelRepository": "1.0.0-*"
  },
  "commands": {
    "ef": "EntityFramework.Commands"
  }
}
