{
  "version": "1.0.0-*",
  "description": "DomainOperations Class Library",
  "authors": [ "Infojini Consulting" ],
  "tags": [ "" ],
  "projectUrl": "",
  "licenseUrl": "",
  "frameworks": {
    "dnx451": { }
  },
  "dependencies": {
    "Model": "1.0.0-*",
    "ModelRepository": "1.0.0-*",
    "System.Security.Cryptography.Algorithms": "4.0.0-beta-23516"
  }
}
