﻿{
  "GeneralSettings": {
    "BookmarksPerPage": 100,
    "TestsTakenPerPage":  10
  },
  "Data": {
    "DefaultConnection": {
      "ConnectionString": "Server=studmonk.c3fwsy1stgro.ap-southeast-1.rds.amazonaws.com;Database=StudMonk;User Id=AppUser;Password=Q&!MymDANTo8Z5z"
    }
  },
  "Email": {
    "Server": "smtp.gmail.com",
    "Port": 587,
    "FromEmailAddr": "studmonk.donotreply@infojiniconsulting.com",
    "Username": "studmonk.donotreply@infojiniconsulting.com",
    "Password": "studmonk@786"
  },
  "Logs": {
    "PathPattern": "E:\\Logs\\file-{Date}.log"
  },
  "Security": {
    "Cors": {
      "AllowCredentials": true,
      "AllowedHeader": "Origin, Accept, Accept-Encoding, Accept-Language, Accept-Version, Content-Length, Content-Type, Date, X-Api-Version, X-Response-Time, X-PINGOTHER, X-CSRF-Token, Authorization, X-Requested-With",
      "AllowedMethods": "*",
      "AllowedOrigins": "*"
    }
  },
  "AwsSns": {
    "AWSAccessKey": "AKIAI4ZJZYWSGD62XL2A",
    "AWSSecretKey": "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",
    "TopicArn": "arn:aws:sns:us-east-1:081485823176:studmonk_alldevices_MOBILEHUB_1030146746",
    "Region": "us-east-1",
    "ServiceURL": "http://sns.us-east-1.amazonaws.com",
    "QuestionOfDayTriggerIntervalInHours": 1
  },
  "Test": {
    "PerQuestionDuration": 54,
	"NeetPerQuestionDuration": 60,
    "BreakDurationInMinutes": 10
  },
  "NotificationMessages": {
    "NewTest": {
      "Subject": "A new full test is published",
      "Message": "{\"type\":\"NORMAL\",\"title\":\"A new full test is published\",\"message\":\"Full test {0} is published\", \"streamid\": \"{1}\"}"
    }
  }
}