{
  "webroot": "wwwroot",
  "version": "1.0.0-*",

  "dependencies": {
    "Model": "1.0.0-*",
    "ModelRepository": "1.0.0-*",
    "DomainOperations": "1.0.0-*",
    "DomainProcess": "1.0.0-*",
    "EFModelRepository": "1.0.0-*",
    "EntityFramework.Commands": "7.0.0-rc1-final",
    "EntityFramework.InMemory": "7.0.0-rc1-final",
    "EntityFramework.MicrosoftSqlServer": "7.0.0-rc1-final",
    "Microsoft.AspNet.Cors": "6.0.0-rc1-final",
    "Microsoft.AspNet.Diagnostics": "1.0.0-rc1-final",
    "Microsoft.AspNet.Mvc": "6.0.0-rc1-final",
    "Microsoft.AspNet.Mvc.WebApiCompatShim": "6.0.0-rc1-final",
    "Microsoft.AspNet.Server.Kestrel": "1.0.0-rc1-final",
    "Microsoft.AspNet.StaticFiles": "1.0.0-rc1-final",
    "Microsoft.Extensions.Logging": "1.0.0-rc1-final",
    "Microsoft.Extensions.Logging.Console": "1.0.0-rc1-final",
    "Microsoft.Extensions.Logging.Debug": "1.0.0-rc1-final",
    "Microsoft.AspNet.Identity": "3.0.0-rc1-final",
    "Microsoft.AspNet.Identity.EntityFramework": "3.0.0-rc1-final",
    "Serilog.Framework.Logging": "1.0.0-rc1-final-10083",
    "System.Reflection.Metadata": "1.1.0",
    "Microsoft.Extensions.Configuration": "1.0.0-rc1-final",
    "EntityFramework.Core": "7.0.0-rc1-final",
    "Microsoft.Extensions.Configuration.Json": "1.0.0-rc1-final",
    "Microsoft.AspNet.Authentication.JwtBearer": "1.0.0-rc1-final",
    "Microsoft.AspNet.Authentication.Google": "1.0.0-rc1-final",
    "Microsoft.AspNet.Authentication.Twitter": "1.0.0-rc1-final",
    "Quartz": "2.3.3",
    "Microsoft.AspNet.Authorization": "1.0.0-rc1-final"
  },

  "commands": {
    "web": "Microsoft.AspNet.Server.Kestrel --server.urls http://0.0.0.0",
    "ef": "EntityFramework.Commands"
  },

  "frameworks": {
    "dnx451": {
      "dependencies": {
        "AWSSDK.Core": "1.0.0-*",
        "AWSSDK.SimpleNotificationService": "3.0.0-*",
        "System.Net.Http": "4.0.1-beta-23409"
      }
    }
  },

  "exclude": [
    "wwwroot",
    "node_modules"
  ],
  "publishExclude": [
    "**.user",
    "**.vspscc"
  ],
  "userSecretsId": "aspnet5-RestApi-20160207095215"
}